…
This is what the two dfs looks like:

``` r
symbol_locations
```

    # A tibble: 728 × 4
           x     y char  symbol_id
       <int> <int> <chr>     <int>
     1     8     2 *             1
     2    45     2 *             2
     3    72     2 /             3
     4    90     2 *             4
     5    95     2 *             5
     6   105     2 *             6
     7   119     2 *             7
     8    24     3 *             8
     9    34     3 *             9
    10    43     3 *            10
    # ℹ 718 more rows

``` r
number_locations
```

    # A tibble: 1,187 × 4
          x1    x2     y number
       <int> <int> <int>  <dbl>
     1     6     8     1    613
     2    44    46     1    439
     3    59    61     1    498
     4    87    89     1    438
     5    96    98     1    617
     6   103   105     1    343
     7   119   121     1    942
     8    21    23     2    790
     9    35    37     2    269
    10    40    42     2    735
    # ℹ 1,177 more rows
…
